digraph Tree {
node [shape=box, fontname="helvetica"] ;
edge [fontname="helvetica"] ;
0 [label="x[3] <= 0.722\nsquared_error = 0.012\nsamples = 1168\nvalue = 0.204"] ;
1 [label="x[3] <= 0.611\nsquared_error = 0.005\nsamples = 984\nvalue = 0.172"] ;
0 -> 1 [labeldistance=2.5, labelangle=45, headlabel="True"] ;
2 [label="x[15] <= 0.197\nsquared_error = 0.003\nsamples = 726\nvalue = 0.149"] ;
1 -> 2 ;
3 [label="squared_error = 0.002\nsamples = 438\nvalue = 0.126"] ;
2 -> 3 ;
4 [label="squared_error = 0.003\nsamples = 288\nvalue = 0.183"] ;
2 -> 4 ;
5 [label="x[15] <= 0.318\nsquared_error = 0.004\nsamples = 258\nvalue = 0.238"] ;
1 -> 5 ;
6 [label="squared_error = 0.002\nsamples = 208\nvalue = 0.222"] ;
5 -> 6 ;
7 [label="squared_error = 0.004\nsamples = 50\nvalue = 0.304"] ;
5 -> 7 ;
8 [label="x[3] <= 0.833\nsquared_error = 0.015\nsamples = 184\nvalue = 0.371"] ;
0 -> 8 [labeldistance=2.5, labelangle=-45, headlabel="False"] ;
9 [label="x[15] <= 0.309\nsquared_error = 0.008\nsamples = 135\nvalue = 0.333"] ;
8 -> 9 ;
10 [label="squared_error = 0.005\nsamples = 86\nvalue = 0.3"] ;
9 -> 10 ;
11 [label="squared_error = 0.009\nsamples = 49\nvalue = 0.392"] ;
9 -> 11 ;
12 [label="x[13] <= 0.807\nsquared_error = 0.02\nsamples = 49\nvalue = 0.475"] ;
8 -> 12 ;
13 [label="squared_error = 0.013\nsamples = 47\nvalue = 0.456"] ;
12 -> 13 ;
14 [label="squared_error = 0.007\nsamples = 2\nvalue = 0.903"] ;
12 -> 14 ;
}